// Jest Snapshot v1, https://goo.gl/fbAQLP

exports[`Code owners component matches the snapshot 1`] = `<!---->`;

exports[`Code owners component matches the snapshot 2`] = `
<div
  class="well-segment blob-auxiliary-viewer file-owner-content gl-display-flex gl-flex-wrap-wrap"
>
  <div
    class="gl-display-inline gl-mr-2"
  >
    <gl-icon-stub
      data-testid="users-icon"
      name="users"
      size="16"
    />
     
    <strong>
      Code owners
    </strong>
     
    <gl-link-stub
      href="/help/user/project/code_owners"
      target="_blank"
      title="About this feature"
    >
      <gl-icon-stub
        data-testid="help-icon"
        name="question-o"
        size="16"
      />
    </gl-link-stub>
    
    :
  
  </div>
   
  <div
    data-testid="code-owners"
  >
    <!---->
     
    <gl-link-stub
      href="path/to/@johnDoe"
      target="_blank"
    >
      
      John Doe
    
    </gl-link-stub>
  </div>
   
  <!---->
   
  <!---->
</div>
`;

exports[`Code owners component matches the snapshot 3`] = `
<div
  class="well-segment blob-auxiliary-viewer file-owner-content gl-display-flex gl-flex-wrap-wrap"
>
  <div
    class="gl-display-inline gl-mr-2"
  >
    <gl-icon-stub
      data-testid="users-icon"
      name="users"
      size="16"
    />
     
    <strong>
      Code owners
    </strong>
     
    <gl-link-stub
      href="/help/user/project/code_owners"
      target="_blank"
      title="About this feature"
    >
      <gl-icon-stub
        data-testid="help-icon"
        name="question-o"
        size="16"
      />
    </gl-link-stub>
    
    :
  
  </div>
   
  <div
    data-testid="code-owners"
  >
    <!---->
     
    <gl-link-stub
      href="/raisa"
      target="_blank"
    >
      
      Idella Welch
    
    </gl-link-stub>
  </div>
  <div
    data-testid="code-owners"
  >
    <span
      data-testid="comma-separator"
    >
      , 
    </span>
     
    <gl-link-stub
      href="/noella"
      target="_blank"
    >
      
      Winston Von
    
    </gl-link-stub>
  </div>
   
  <!---->
   
  <!---->
</div>
`;

exports[`Code owners component matches the snapshot 4`] = `
<div
  class="well-segment blob-auxiliary-viewer file-owner-content gl-display-flex gl-flex-wrap-wrap"
>
  <div
    class="gl-display-inline gl-mr-2"
  >
    <gl-icon-stub
      data-testid="users-icon"
      name="users"
      size="16"
    />
     
    <strong>
      Code owners
    </strong>
     
    <gl-link-stub
      href="/help/user/project/code_owners"
      target="_blank"
      title="About this feature"
    >
      <gl-icon-stub
        data-testid="help-icon"
        name="question-o"
        size="16"
      />
    </gl-link-stub>
    
    :
  
  </div>
   
  <div
    data-testid="code-owners"
  >
    <!---->
     
    <gl-link-stub
      href="/raisa"
      target="_blank"
    >
      
      Idella Welch
    
    </gl-link-stub>
  </div>
  <div
    data-testid="code-owners"
  >
    <span
      data-testid="comma-separator"
    >
      , 
    </span>
     
    <gl-link-stub
      href="/noella"
      target="_blank"
    >
      
      Winston Von
    
    </gl-link-stub>
  </div>
  <div
    data-testid="code-owners"
  >
    <span
      data-testid="comma-separator"
    >
      , 
    </span>
     
    <gl-link-stub
      href="/edyth"
      target="_blank"
    >
      
      Don Runte
    
    </gl-link-stub>
  </div>
   
  <!---->
   
  <!---->
</div>
`;

exports[`Code owners component matches the snapshot 5`] = `
<div
  class="well-segment blob-auxiliary-viewer file-owner-content gl-display-flex gl-flex-wrap-wrap"
>
  <div
    class="gl-display-inline gl-mr-2"
  >
    <gl-icon-stub
      data-testid="users-icon"
      name="users"
      size="16"
    />
     
    <strong>
      Code owners
    </strong>
     
    <gl-link-stub
      href="/help/user/project/code_owners"
      target="_blank"
      title="About this feature"
    >
      <gl-icon-stub
        data-testid="help-icon"
        name="question-o"
        size="16"
      />
    </gl-link-stub>
    
    :
  
  </div>
   
  <div
    data-testid="code-owners"
  >
    <!---->
     
    <gl-link-stub
      href="/raisa"
      target="_blank"
    >
      
      Idella Welch
    
    </gl-link-stub>
  </div>
  <div
    data-testid="code-owners"
  >
    <span
      data-testid="comma-separator"
    >
      , 
    </span>
     
    <gl-link-stub
      href="/noella"
      target="_blank"
    >
      
      Winston Von
    
    </gl-link-stub>
  </div>
  <div
    data-testid="code-owners"
  >
    <span
      data-testid="comma-separator"
    >
      , 
    </span>
     
    <gl-link-stub
      href="/edyth"
      target="_blank"
    >
      
      Don Runte
    
    </gl-link-stub>
  </div>
  <div
    data-testid="code-owners"
  >
    <span
      data-testid="comma-separator"
    >
      , 
    </span>
     
    <gl-link-stub
      href="/julietta_rogahn"
      target="_blank"
    >
      
      Sherri McClure
    
    </gl-link-stub>
  </div>
  <div
    data-testid="code-owners"
  >
    <span
      data-testid="comma-separator"
    >
      , 
    </span>
     
    <gl-link-stub
      href="/youlanda"
      target="_blank"
    >
      
      Amber Koch
    
    </gl-link-stub>
  </div>
   
  <!---->
   
  <span
    class="gl-ml-2"
  >
     and 
  </span>
   
  <gl-button-stub
    buttontextclasses=""
    category="primary"
    class="gl-vertical-align-text-bottom gl-ml-2"
    icon=""
    size="medium"
    variant="link"
  >
    
      2 more
    
  </gl-button-stub>
</div>
`;
